<svg width="1200" height="1400" xmlns="http://www.w3.org/2000/svg">
 <!-- Created with Method Draw - http://github.com/duopixel/Method-Draw/ -->

 <g>
  <title>background</title>
  <rect x="-1" y="-1" width="1202" height="1402" id="canvas_background" fill="#fff"/>
  <g id="canvasGrid" display="none">
   <rect id="svg_9" width="100%" height="100%" x="0" y="0" stroke-width="0" fill="url(#gridpattern)"/>
  </g>
 </g>
 <g>
  <title>Layer 1</title>
  <path id="svg_40" d="m454.142025,367.353458l134.544972,-77.272547l134.545288,77.272547l-134.545288,77.272547l-134.544972,-77.272547z" fill-opacity="null" stroke-opacity="null" stroke-width="2" stroke="#000" fill="none"/>
  <path fill="none" stroke="#000" stroke-width="5" stroke-opacity="null" fill-opacity="null" d="m613.425681,74.688226c0,0 4.365213,-19.911506 0,-26.656458c-4.370355,-6.744952 -6.113355,-11.237804 -15.722993,-14.454278s-6.108213,-2.575448 -13.095639,-2.246426c-6.987426,0.323349 -12.812851,4.492853 -12.812851,6.739279c0,0 -4.365213,0.323349 -6.108213,2.252099c-1.748142,1.92875 -4.658284,10.914455 -4.658284,13.166554s1.455071,17.347403 2.910142,20.558204l-1.732717,0.641026c-1.455071,18.623782 5.820284,20.875881 5.820284,20.875881c2.617071,17.347403 5.239284,9.961426 5.239284,14.454278s-2.622213,2.893125 -2.622213,2.893125s-2.324,7.062628 -8.144284,9.632404c-5.820284,2.564103 -38.130058,16.371683 -40.757413,19.264807c-2.627354,2.898798 -2.329142,16.383028 -2.329142,16.383028l138.550524,0c0,0 0.303354,-13.484231 -2.324,-16.383028c-2.632496,-2.898798 -34.94227,-16.700705 -40.762554,-19.264807c-5.820284,-2.569776 -8.144284,-9.632404 -8.144284,-9.632404s-2.622213,1.599728 -2.622213,-2.893125s2.622213,2.893125 5.244426,-14.454278c0,0 7.270213,-2.252099 5.820284,-20.875881l-1.748142,0l-0.000002,0z" id="svg_2"/>
  <path stroke="#000" transform="rotate(180 588.6871948242188,230.31117248535153) " fill="none" stroke-width="2" stroke-opacity="null" fill-opacity="null" d="m550.115713,230.204683l38.571425,-44.244323l38.571425,44.244323l-19.285714,0l0,44.457218l-38.571422,0l0,-44.457218l-19.285714,0z" id="svg_3" opacity="0.36"/>
  <text fill="#000000" stroke="#000" stroke-width="0" stroke-opacity="null" fill-opacity="null" x="526.297487" y="357.690149" id="svg_5" font-size="24" font-family="Helvetica, Arial, sans-serif" text-anchor="start" xml:space="preserve">nginx-proxy</text>
  <rect fill="none" stroke="#000" stroke-width="7" stroke-opacity="null" fill-opacity="null" x="473.687183" y="1192.883454" width="229.99995" height="107.142834" id="svg_29"/>
  <ellipse fill="none" stroke="#000" stroke-width="4" stroke-opacity="null" fill-opacity="null" cx="588.687174" cy="1335.02628" id="svg_30" rx="54.285702" ry="6.42857"/>
  <line fill="none" stroke="#000" stroke-width="12" stroke-opacity="null" fill-opacity="null" x1="587.972875" y1="1298.597717" x2="589.401446" y2="1328.59771" id="svg_31" stroke-linejoin="null" stroke-linecap="null"/>
  <text style="cursor: move;" fill="#000000" stroke="#000" stroke-opacity="null" fill-opacity="null" x="568.69106" y="1232.883445" id="svg_32" font-size="24" font-family="Helvetica, Arial, sans-serif" text-anchor="start" xml:space="preserve">Vue</text>
  <text fill="#000000" stroke="#000" stroke-width="0" stroke-opacity="null" fill-opacity="null" x="513.391964" y="388.599165" id="svg_41" font-size="20" font-family="Helvetica, Arial, sans-serif" text-anchor="start" xml:space="preserve">matches domain?</text>
  <text xml:space="preserve" text-anchor="start" font-family="Helvetica, Arial, sans-serif" font-size="20" id="svg_42" y="469.897936" x="573.582802" fill-opacity="null" stroke-opacity="null" stroke-width="0" stroke="#000" fill="#000000">yes</text>
  <text xml:space="preserve" text-anchor="start" font-family="Helvetica, Arial, sans-serif" font-size="20" id="svg_43" y="373.534533" x="729.946059" fill-opacity="null" stroke-opacity="null" stroke-width="0" stroke="#000" fill="#000000">no</text>
  <rect fill="none" stroke="#000" stroke-width="7" stroke-opacity="null" fill-opacity="null" x="897.972824" y="320.158295" width="229.99995" height="107.142834" id="svg_44"/>
  <ellipse fill="none" stroke="#000" stroke-width="4" stroke-opacity="null" fill-opacity="null" cx="1012.258513" cy="462.301121" id="svg_45" rx="54.285702" ry="6.42857"/>
  <line fill="none" stroke="#000" stroke-width="12" stroke-opacity="null" fill-opacity="null" x1="1010.829942" y1="425.872558" x2="1012.258513" y2="455.872551" id="svg_46" stroke-linejoin="null" stroke-linecap="null"/>
  <text style="cursor: move;" fill="#000000" stroke="#000" stroke-opacity="null" fill-opacity="null" x="989.790981" y="360.158286" id="svg_47" font-size="24" font-family="Helvetica, Arial, sans-serif" text-anchor="start" xml:space="preserve">503</text>
  <path stroke="#000" transform="rotate(90 818.6866455078126,368.4926147460938) " fill="none" stroke-width="2" stroke-opacity="null" fill-opacity="null" d="m780.115177,368.353462l38.571425,-57.847923l38.571425,57.847923l-19.285714,0l0,58.126276l-38.571422,0l0,-58.126276l-19.285714,0z" id="svg_48" opacity="0.36"/>
  <text fill="#000000" stroke="#000" stroke-opacity="null" fill-opacity="null" x="906.154821" y="396.521834" id="svg_49" font-size="24" font-family="Helvetica, Arial, sans-serif" text-anchor="start" xml:space="preserve">Service Unavailable</text>
  <path stroke="#000" transform="rotate(180 588.6871948242188,526.674072265625) " fill="none" stroke-width="2" stroke-opacity="null" fill-opacity="null" d="m550.115713,526.567602l38.571425,-44.244323l38.571425,44.244323l-19.285714,0l0,44.457218l-38.571422,0l0,-44.457218l-19.285714,0z" id="svg_50" opacity="0.36"/>
  <path id="svg_51" d="m454.142025,658.261845l134.544972,-77.272547l134.545288,77.272547l-134.545288,77.272547l-134.544972,-77.272547z" fill-opacity="null" stroke-opacity="null" stroke-width="2" stroke="#000" fill="none"/>
  <text fill="#000000" stroke="#000" stroke-width="0" stroke-opacity="null" fill-opacity="null" x="550.656862" y="634.053116" id="svg_52" font-size="24" font-family="Helvetica, Arial, sans-serif" text-anchor="start" xml:space="preserve">Django</text>
  <text fill="#000000" stroke="#000" stroke-width="0" stroke-opacity="null" fill-opacity="null" x="490.455969" y="663.143954" id="svg_53" font-size="20" font-family="Helvetica, Arial, sans-serif" text-anchor="start" xml:space="preserve">matches URL pattern?</text>
  <text xml:space="preserve" text-anchor="start" font-family="Helvetica, Arial, sans-serif" font-size="20" id="svg_54" y="760.806322" x="551.917109" fill-opacity="null" stroke-opacity="null" stroke-width="0" stroke="#000" fill="#000000">yes + no</text>
  <path stroke="#000" transform="rotate(180 588.6871948242188,817.5825805664062) " fill="none" stroke-width="2" stroke-opacity="null" fill-opacity="null" d="m550.115713,817.475988l38.571425,-44.244323l38.571425,44.244323l-19.285714,0l0,44.457218l-38.571422,0l0,-44.457218l-19.285714,0z" id="svg_55" opacity="0.36"/>
  <text opacity="0.36" xml:space="preserve" text-anchor="start" font-family="Helvetica, Arial, sans-serif" font-size="20" id="svg_56" y="664.442919" x="729.946059" fill-opacity="null" stroke-opacity="null" stroke-width="0" stroke="#000" fill="#000000">no</text>
  <path stroke="#000" transform="rotate(90 818.6866455078125,659.4011230468751) " fill="none" stroke-width="2" stroke-opacity="null" fill-opacity="null" d="m780.115177,659.261849l38.571425,-57.847923l38.571425,57.847923l-19.285714,0l0,58.126276l-38.571422,0l0,-58.126276l-19.285714,0z" id="svg_57" opacity="0.19"/>
  <rect opacity="0.22" stroke-dasharray="5,5" fill="none" stroke="#000" stroke-width="7" stroke-opacity="null" fill-opacity="null" x="897.972824" y="609.248503" width="229.99995" height="107.142834" id="svg_58"/>
  <ellipse opacity="0.29" stroke-dasharray="5,5" fill="none" stroke="#000" stroke-width="4" stroke-opacity="null" fill-opacity="null" cx="1012.258513" cy="751.391329" id="svg_59" rx="54.285702" ry="6.42857"/>
  <line opacity="0.26" stroke-dasharray="5,5" fill="none" stroke="#000" stroke-width="12" stroke-opacity="null" fill-opacity="null" x1="1010.829942" y1="714.962766" x2="1012.258513" y2="744.962759" id="svg_60" stroke-linejoin="null" stroke-linecap="null"/>
  <text opacity="0.36" fill="#000000" stroke="#000" stroke-opacity="null" fill-opacity="null" x="989.790981" y="649.248494" id="svg_61" font-size="24" font-family="Helvetica, Arial, sans-serif" text-anchor="start" xml:space="preserve">404</text>
  <text opacity="0.37" fill="#000000" stroke="#000" stroke-opacity="null" fill-opacity="null" x="955.245611" y="685.612042" id="svg_62" font-size="24" font-family="Helvetica, Arial, sans-serif" text-anchor="start" xml:space="preserve">Not Found</text>
  <text xml:space="preserve" text-anchor="start" font-family="Helvetica, Arial, sans-serif" font-size="20" id="svg_63" y="664.442919" x="411.765012" fill-opacity="null" stroke-opacity="null" stroke-width="0" stroke="#000" fill="#000000">yes</text>
  <rect fill="none" stroke="#000" stroke-width="7" stroke-opacity="null" fill-opacity="null" x="37.974907" y="611.066681" width="229.99995" height="107.142834" id="svg_64"/>
  <ellipse fill="none" stroke="#000" stroke-width="4" stroke-opacity="null" fill-opacity="null" cx="152.260596" cy="753.209507" id="svg_65" rx="54.285702" ry="6.42857"/>
  <line fill="none" stroke="#000" stroke-width="12" stroke-opacity="null" fill-opacity="null" x1="150.832025" y1="716.780944" x2="152.260596" y2="746.780937" id="svg_66" stroke-linejoin="null" stroke-linecap="null"/>
  <text fill="#000000" stroke="#000" stroke-opacity="null" fill-opacity="null" x="55.247791" y="651.066672" id="svg_67" font-size="20" font-family="Helvetica, Arial, sans-serif" text-anchor="start" xml:space="preserve">Server Side Rendered</text>
  <path stroke="#000" transform="rotate(-90 344.1423645019533,659.4011230468751) " fill="none" stroke-width="2" stroke-opacity="null" fill-opacity="null" d="m305.570872,659.261849l38.571425,-57.847923l38.571425,57.847923l-19.285714,0l0,58.126276l-38.571422,0l0,-58.126276l-19.285714,0z" id="svg_68" opacity="0.36"/>
  <text fill="#000000" stroke="#000" stroke-opacity="null" fill-opacity="null" x="55.247791" y="689.248398" id="svg_69" font-size="22" font-family="Helvetica, Arial, sans-serif" text-anchor="start" xml:space="preserve">Content like /admin/</text>
  <text xml:space="preserve" text-anchor="start" font-family="Helvetica, Arial, sans-serif" font-size="20" id="svg_70" y="515.35237" x="613.232548" fill-opacity="null" stroke-opacity="null" stroke-width="0" stroke="#000" fill="#000000">(nginx of app + gunicorn)</text>
  <text xml:space="preserve" text-anchor="start" font-family="Helvetica, Arial, sans-serif" font-size="18" id="svg_71" y="722.624587" x="320.505995" fill-opacity="null" stroke-opacity="null" stroke-width="null" stroke="#000" fill="#000000">admin/</text>
  <text stroke="#000" xml:space="preserve" text-anchor="start" font-family="Helvetica, Arial, sans-serif" font-size="18" id="svg_73" y="751.91765" x="320.505995" fill-opacity="null" stroke-opacity="null" stroke-width="null" fill="#000000">accounts/</text>
  <text xml:space="preserve" text-anchor="start" font-family="Helvetica, Arial, sans-serif" font-size="18" id="svg_74" y="781.008489" x="320.505995" fill-opacity="null" stroke-opacity="null" stroke-width="null" stroke="#000" fill="#000000">...</text>
  <path id="svg_75" d="m454.142025,949.170231l134.544972,-77.272547l134.545288,77.272547l-134.545288,77.272547l-134.544972,-77.272547z" fill-opacity="null" stroke-opacity="null" stroke-width="2" stroke="#000" fill="none"/>
  <text style="cursor: move;" fill="#000000" stroke="#000" stroke-width="0" stroke-opacity="null" fill-opacity="null" x="524.8053" y="934.052388" id="svg_76" font-size="24" font-family="Helvetica, Arial, sans-serif" text-anchor="start" xml:space="preserve">Vue(-router)</text>
  <text fill="#000000" stroke="#000" stroke-width="0" stroke-opacity="null" fill-opacity="null" x="490.455969" y="963.143227" id="svg_77" font-size="20" font-family="Helvetica, Arial, sans-serif" text-anchor="start" xml:space="preserve">matches URL pattern?</text>
  <text xml:space="preserve" text-anchor="start" font-family="Helvetica, Arial, sans-serif" font-size="20" id="svg_78" y="1069.896482" x="573.582802" fill-opacity="null" stroke-opacity="null" stroke-width="0" stroke="#000" fill="#000000">yes</text>
  <path stroke="#000" transform="rotate(180 588.6871948242186,1126.67236328125) " fill="none" stroke-width="2" stroke-opacity="null" fill-opacity="null" d="m550.115713,1126.566148l38.571425,-44.244323l38.571425,44.244323l-19.285714,0l0,44.457218l-38.571422,0l0,-44.457218l-19.285714,0z" id="svg_79" opacity="0.36"/>
  <text fill="#000000" stroke="#000" stroke-opacity="null" fill-opacity="null" x="532.327512" y="1265.610637" id="svg_80" font-size="24" font-family="Helvetica, Arial, sans-serif" text-anchor="start" xml:space="preserve">Subpage1</text>
  <rect fill="none" stroke="#000" stroke-width="7" stroke-opacity="null" fill-opacity="null" x="219.142345" y="1192.883454" width="229.99995" height="107.142834" id="svg_81"/>
  <ellipse fill="none" stroke="#000" stroke-width="4" stroke-opacity="null" fill-opacity="null" cx="334.142336" cy="1335.02628" id="svg_82" rx="54.285702" ry="6.42857"/>
  <line fill="none" stroke="#000" stroke-width="12" stroke-opacity="null" fill-opacity="null" x1="333.428037" y1="1298.597717" x2="334.856608" y2="1328.59771" id="svg_83" stroke-linejoin="null" stroke-linecap="null"/>
  <text style="cursor: move;" fill="#000000" stroke="#000" stroke-opacity="null" fill-opacity="null" x="314.146222" y="1232.883445" id="svg_84" font-size="24" font-family="Helvetica, Arial, sans-serif" text-anchor="start" xml:space="preserve">Vue</text>
  <text xml:space="preserve" text-anchor="start" font-family="Helvetica, Arial, sans-serif" font-size="20" id="svg_85" y="1069.896482" x="319.037964" fill-opacity="null" stroke-opacity="null" stroke-width="0" stroke="#000" fill="#000000">yes</text>
  <path stroke="#000" transform="rotate(180 334.1425476074219,1126.67236328125) " fill="none" stroke-width="2" stroke-opacity="null" fill-opacity="null" d="m295.570875,1126.566148l38.571425,-44.244323l38.571425,44.244323l-19.285714,0l0,44.457218l-38.571422,0l0,-44.457218l-19.285714,0z" id="svg_86" opacity="0.36"/>
  <text style="cursor: move;" fill="#000000" stroke="#000" stroke-opacity="null" fill-opacity="null" x="277.782674" y="1265.610637" id="svg_87" font-size="24" font-family="Helvetica, Arial, sans-serif" text-anchor="start" xml:space="preserve">Main Page</text>
  <rect fill="none" stroke="#000" stroke-width="7" stroke-opacity="null" fill-opacity="null" x="728.232021" y="1192.883454" width="229.99995" height="107.142834" id="svg_88"/>
  <ellipse fill="none" stroke="#000" stroke-width="4" stroke-opacity="null" fill-opacity="null" cx="843.232012" cy="1335.02628" id="svg_89" rx="54.285702" ry="6.42857"/>
  <line fill="none" stroke="#000" stroke-width="12" stroke-opacity="null" fill-opacity="null" x1="842.517713" y1="1298.597717" x2="843.946284" y2="1328.59771" id="svg_90" stroke-linejoin="null" stroke-linecap="null"/>
  <text style="cursor: move;" fill="#000000" stroke="#000" stroke-opacity="null" fill-opacity="null" x="823.235898" y="1232.883445" id="svg_91" font-size="24" font-family="Helvetica, Arial, sans-serif" text-anchor="start" xml:space="preserve">Vue</text>
  <text xml:space="preserve" text-anchor="start" font-family="Helvetica, Arial, sans-serif" font-size="20" id="svg_92" y="1069.896482" x="828.12764" fill-opacity="null" stroke-opacity="null" stroke-width="0" stroke="#000" fill="#000000">yes</text>
  <path stroke="#000" transform="rotate(180 843.2318725585936,1126.67236328125) " fill="none" stroke-width="2" stroke-opacity="null" fill-opacity="null" d="m804.660551,1126.566148l38.571425,-44.244323l38.571425,44.244323l-19.285714,0l0,44.457218l-38.571422,0l0,-44.457218l-19.285714,0z" id="svg_93" opacity="0.36"/>
  <text fill="#000000" stroke="#000" stroke-opacity="null" fill-opacity="null" x="786.87235" y="1265.610637" id="svg_94" font-size="24" font-family="Helvetica, Arial, sans-serif" text-anchor="start" xml:space="preserve">Subpage2</text>
  <text xml:space="preserve" text-anchor="start" font-family="Helvetica, Arial, sans-serif" font-size="20" id="svg_95" y="955.351306" x="729.946059" fill-opacity="null" stroke-opacity="null" stroke-width="0" stroke="#000" fill="#000000">no</text>
  <path stroke="#000" transform="rotate(90 818.6866455078126,950.309326171875) " fill="none" stroke-width="2" stroke-opacity="null" fill-opacity="null" d="m780.115177,950.170235l38.571425,-57.847923l38.571425,57.847923l-19.285714,0l0,58.126276l-38.571422,0l0,-58.126276l-19.285714,0z" id="svg_96" opacity="0.36"/>
  <rect fill="none" stroke="#000" stroke-width="7" stroke-opacity="null" fill-opacity="null" x="897.972824" y="900.156889" width="229.99995" height="107.142834" id="svg_97"/>
  <ellipse fill="none" stroke="#000" stroke-width="4" stroke-opacity="null" fill-opacity="null" cx="1012.258513" cy="1042.299715" id="svg_98" rx="54.285702" ry="6.42857"/>
  <line fill="none" stroke="#000" stroke-width="12" stroke-opacity="null" fill-opacity="null" x1="1010.829942" y1="1005.871152" x2="1012.258513" y2="1035.871145" id="svg_99" stroke-linejoin="null" stroke-linecap="null"/>
  <text fill="#000000" stroke="#000" stroke-opacity="null" fill-opacity="null" x="989.790981" y="940.15688" id="svg_100" font-size="24" font-family="Helvetica, Arial, sans-serif" text-anchor="start" xml:space="preserve">404</text>
  <text fill="#000000" stroke="#000" stroke-opacity="null" fill-opacity="null" x="955.245611" y="976.520429" id="svg_101" font-size="24" font-family="Helvetica, Arial, sans-serif" text-anchor="start" xml:space="preserve">Not Found</text>
  <text xml:space="preserve" text-anchor="start" font-family="Helvetica, Arial, sans-serif" font-size="20" id="svg_102" y="804.238521" x="613.232548" fill-opacity="null" stroke-opacity="null" stroke-width="0" stroke="#000" fill="#000000">(return index.html + request URI)</text>
  <text style="cursor: move;" xml:space="preserve" text-anchor="start" font-family="Helvetica, Arial, sans-serif" font-size="20" id="svg_103" y="222.021818" x="613.232548" fill-opacity="null" stroke-opacity="null" stroke-width="0" stroke="#000" fill="#000000">(any request to your domain)</text>
  <text style="cursor: move;" xml:space="preserve" text-anchor="start" font-family="Helvetica, Arial, sans-serif" font-size="20" id="svg_104" y="595.351612" x="857.674675" fill-opacity="null" stroke-opacity="null" stroke-width="0" stroke="#000" fill="#000000">(you can do that here, but we don't)</text>
 </g>
</svg>